ADS503 - Module 1 Lab - updated 2024
…
Warning: package 'dplyr' was built under R version 4.2.3

Warning: package 'stringr' was built under R version 4.2.3

── Conflicts ────────────────────────────────────────── tidyverse_conflicts() ──
✖ dplyr::filter() masks stats::filter()
✖ dplyr::lag()    masks stats::lag()

xd1 <- tibble(
    x = 1:1000, 
    y = letters[1:1000], 
    z = rep(c(TRUE, FALSE), 500))
xd1 

# A tibble: 1,000 × 3
       x y     z    
   <int> <chr> <lgl>
 1     1 a     TRUE 
 2     2 b     FALSE
 3     3 c     TRUE 
 4     4 d     FALSE
 5     5 e     TRUE 
 6     6 f     FALSE
 7     7 g     TRUE 
 8     8 h     FALSE
 9     9 i     TRUE 
10    10 j     FALSE
# ℹ 990 more rows

class(xd1)

[1] "tbl_df"     "tbl"        "data.frame"

dplyr packages - select, filter

dplyr is a tidyverse package for working with dataframes.

#xd1[, c("y", "z")] # data frame columns y and z
xd1 |> select(y, z)

# A tibble: 1,000 × 2
   y     z    
   <chr> <lgl>
 1 a     TRUE 
 2 b     FALSE
 3 c     TRUE 
 4 d     FALSE
 5 e     TRUE 
 6 f     FALSE
 7 g     TRUE 
 8 h     FALSE
 9 i     TRUE 
10 j     FALSE
# ℹ 990 more rows

#xd1[xd1$x > 5, ] # subset data frame
xd1 |> filter(x > 5)

# A tibble: 995 × 3
       x y     z    
   <int> <chr> <lgl>
 1     6 f     FALSE
 2     7 g     TRUE 
 3     8 h     FALSE
 4     9 i     TRUE 
 5    10 j     FALSE
 6    11 k     TRUE 
 7    12 l     FALSE
 8    13 m     TRUE 
 9    14 n     FALSE
10    15 o     TRUE 
# ℹ 985 more rows

#subset(xd1, x > 5 & z == TRUE) # subset data frame
xd1 |> filter(
    x > 5,
    z == TRUE
)

# A tibble: 497 × 3
       x y     z    
   <int> <chr> <lgl>
 1     7 g     TRUE 
 2     9 i     TRUE 
 3    11 k     TRUE 
 4    13 m     TRUE 
 5    15 o     TRUE 
 6    17 q     TRUE 
 7    19 s     TRUE 
 8    21 u     TRUE 
 9    23 w     TRUE 
10    25 y     TRUE 
# ℹ 487 more rows

#xds1 <- subset(xd1, x > 5, select = c(x, y)) # subset and select data frame
xd1 |> 
    filter(x > 5) |> 
    select(x, y)

# A tibble: 995 × 2
       x y    
   <int> <chr>
 1     6 f    
 2     7 g    
 3     8 h    
 4     9 i    
 5    10 j    
 6    11 k    
 7    12 l    
 8    13 m    
 9    14 n    
10    15 o    
# ℹ 985 more rows

#xds2 <- subset(xd1, x > 5, select = -z) # subset and select data frame
xds2 <- xd1 |> 
    filter(x > 5) |> 
    select(-z)
xds2

# A tibble: 995 × 2
       x y    
   <int> <chr>
 1     6 f    
 2     7 g    
 3     8 h    
 4     9 i    
 5    10 j    
 6    11 k    
 7    12 l    
 8    13 m    
 9    14 n    
10    15 o    
# ℹ 985 more rows
…
dim(cars)

[1] 50  2

#common applications to columns
cars |> 
    as_tibble() |>  ## not required, but makes our output nicer
    mutate(travel_time = dist / speed)

# A tibble: 50 × 3
   speed  dist travel_time
   <dbl> <dbl>       <dbl>
 1     4     2       0.5  
 2     4    10       2.5  
 3     7     4       0.571
 4     7    22       3.14 
 5     8    16       2    
 6     9    10       1.11 
 7    10    18       1.8  
 8    10    26       2.6  
 9    10    34       3.4  
10    11    17       1.55 
# ℹ 40 more rows
…
  avg_speed max_speed dist_range
1      15.4        25    2 - 120

#apply(cars, 1, mean) # row mean
cars |> 
    rowwise() |> 
    mutate(mean = mean(c_across(everything()))) #summarize for just the mean

# A tibble: 50 × 3
# Rowwise: 
   speed  dist  mean
   <dbl> <dbl> <dbl>
 1     4     2   3  
 2     4    10   7  
 3     7     4   5.5
 4     7    22  14.5
 5     8    16  12  
 6     9    10   9.5
 7    10    18  14  
 8    10    26  18  
 9    10    34  22  
10    11    17  14  
# ℹ 40 more rows
…
